SAP1-Project/RAM/simulation/qsim/RAM.msim.vcd
$comment
	File created using the following command:
		vcd file RAM.msim.vcd -direction
$end
$date
	Thu Mar 20 22:08:38 2025
$end
$version
	ModelSim Version 2020.1
$end
$timescale
	1ps
$end

$scope module RAM_vlg_vec_tst $end
$var reg 1 ! AOut $end
$var reg 1 " BOut $end
$var reg 1 # CE $end
$var reg 1 $ COut $end
$var reg 1 % D0 $end
$var reg 1 & D1 $end
$var reg 1 ' D2 $end
$var reg 1 ( D3 $end
$var reg 1 ) D4 $end
$var reg 1 * D5 $end
$var reg 1 + D6 $end
$var reg 1 , D7 $end
$var reg 1 - DOut $end
$var reg 1 . LeituraEscrita $end
$var reg 1 / RunProg $end
$var wire 1 0 MEM0 $end
$var wire 1 1 MEM1 $end
$var wire 1 2 MEM2 $end
$var wire 1 3 MEM3 $end
$var wire 1 4 MEM4 $end
$var wire 1 5 MEM5 $end
$var wire 1 6 MEM6 $end
$var wire 1 7 MEM7 $end

$scope module i1 $end
$var wire 1 8 gnd $end
$var wire 1 9 vcc $end
$var wire 1 : unknown $end
$var tri1 1 ; devclrn $end
$var tri1 1 < devpor $end
$var tri1 1 = devoe $end
$var wire 1 > ~QUARTUS_CREATED_GND~I_combout $end
$var wire 1 ? ~QUARTUS_CREATED_UNVM~~busy $end
$var wire 1 @ ~QUARTUS_CREATED_ADC1~~eoc $end
$var wire 1 A ~QUARTUS_CREATED_ADC2~~eoc $end
$var wire 1 B MEM0~output_o $end
$var wire 1 C MEM1~output_o $end
$var wire 1 D MEM2~output_o $end
$var wire 1 E MEM3~output_o $end
$var wire 1 F MEM4~output_o $end
$var wire 1 G MEM5~output_o $end
$var wire 1 H MEM6~output_o $end
$var wire 1 I MEM7~output_o $end
$var wire 1 J CE~input_o $end
$var wire 1 K RunProg~input_o $end
$var wire 1 L inst2~combout $end
$var wire 1 M COut~input_o $end
$var wire 1 N BOut~input_o $end
$var wire 1 O AOut~input_o $end
$var wire 1 P inst|inst4~3_combout $end
$var wire 1 Q LeituraEscrita~input_o $end
$var wire 1 R DOut~input_o $end
$var wire 1 S inst1|inst38|inst~0_combout $end
$var wire 1 T inst|inst4~4_combout $end
$var wire 1 U inst1|inst42|inst~0_combout $end
$var wire 1 V inst1|inst42|inst1~combout $end
$var wire 1 W D0~input_o $end
$var wire 1 X inst1|inst42|inst3~q $end
$var wire 1 Y inst1|inst38|inst1~combout $end
$var wire 1 Z inst1|inst38|inst3~feeder_combout $end
$var wire 1 [ inst1|inst38|inst3~q $end
$var wire 1 \ inst1|inst78|inst6~9_combout $end
$var wire 1 ] inst|inst4~2_combout $end
$var wire 1 ^ inst1|inst30|inst~0_combout $end
$var wire 1 _ inst1|inst34|inst~0_combout $end
$var wire 1 ` inst1|inst34|inst1~combout $end
$var wire 1 a inst1|inst34|inst3~q $end
$var wire 1 b inst1|inst30|inst1~combout $end
$var wire 1 c inst1|inst30|inst3~q $end
$var wire 1 d inst1|inst78|inst6~8_combout $end
$var wire 1 e inst|inst4~0_combout $end
$var wire 1 f inst1|inst22|inst1~combout $end
$var wire 1 g inst1|inst22|inst3~q $end
$var wire 1 h inst1|inst22|inst~0_combout $end
$var wire 1 i inst1|inst26|inst1~combout $end
$var wire 1 j inst1|inst26|inst3~q $end
$var wire 1 k inst1|inst26|inst~0_combout $end
$var wire 1 l inst1|inst78|inst6~7_combout $end
$var wire 1 m inst|inst4~1_combout $end
$var wire 1 n inst1|inst78|inst1~combout $end
$var wire 1 o inst1|inst78|inst3~q $end
$var wire 1 p inst1|inst|inst~0_combout $end
$var wire 1 q inst1|inst|inst1~combout $end
$var wire 1 r inst1|inst|inst3~q $end
$var wire 1 s inst1|inst78|inst~0_combout $end
$var wire 1 t inst1|inst78|inst6~6_combout $end
$var wire 1 u inst1|inst78|inst6~10_combout $end
$var wire 1 v inst|inst4~6_combout $end
$var wire 1 w inst1|inst62|inst~0_combout $end
$var wire 1 x inst1|inst62|inst1~combout $end
$var wire 1 y inst1|inst62|inst3~q $end
$var wire 1 z inst|inst4~7_combout $end
$var wire 1 { inst1|inst66|inst1~combout $end
$var wire 1 | inst1|inst66|inst3~q $end
$var wire 1 } inst1|inst66|inst~0_combout $end
$var wire 1 ~ inst1|inst78|inst6~13_combout $end
$var wire 1 !! inst|inst4~5_combout $end
$var wire 1 "! inst1|inst54|inst1~combout $end
$var wire 1 #! inst1|inst54|inst3~q $end
$var wire 1 $! inst1|inst54|inst6~0_combout $end
$var wire 1 %! inst1|inst58|inst~0_combout $end
$var wire 1 &! inst1|inst46|inst~0_combout $end
$var wire 1 '! inst1|inst46|inst1~combout $end
$var wire 1 (! inst1|inst46|inst3~feeder_combout $end
$var wire 1 )! inst1|inst46|inst3~q $end
$var wire 1 *! inst1|inst50|inst1~combout $end
$var wire 1 +! inst1|inst50|inst3~q $end
$var wire 1 ,! inst1|inst50|inst~0_combout $end
$var wire 1 -! inst1|inst78|inst6~11_combout $end
$var wire 1 .! inst1|inst58|inst1~combout $end
$var wire 1 /! inst1|inst58|inst3~q $end
$var wire 1 0! inst1|inst78|inst6~12_combout $end
$var wire 1 1! inst1|inst70|inst1~combout $end
$var wire 1 2! inst1|inst70|inst3~q $end
$var wire 1 3! inst1|inst74|inst~0_combout $end
$var wire 1 4! inst1|inst74|inst1~combout $end
$var wire 1 5! inst1|inst74|inst3~q $end
$var wire 1 6! inst1|inst70|inst~0_combout $end
$var wire 1 7! inst1|inst78|inst6~14_combout $end
$var wire 1 8! inst1|inst78|inst6~15_combout $end
$var wire 1 9! inst1|inst78|inst6~16_combout $end
$var wire 1 :! inst1|inst55|inst1~combout $end
$var wire 1 ;! D1~input_o $end
$var wire 1 <! inst1|inst55|inst3~feeder_combout $end
$var wire 1 =! inst1|inst55|inst3~q $end
$var wire 1 >! inst1|inst55|inst6~0_combout $end
$var wire 1 ?! inst1|inst51|inst1~combout $end
$var wire 1 @! inst1|inst51|inst3~q $end
$var wire 1 A! inst1|inst47|inst1~combout $end
$var wire 1 B! inst1|inst47|inst3~q $end
$var wire 1 C! inst1|inst79|inst6~6_combout $end
$var wire 1 D! inst1|inst59|inst1~combout $end
$var wire 1 E! inst1|inst59|inst3~q $end
$var wire 1 F! inst1|inst79|inst6~7_combout $end
$var wire 1 G! inst1|inst63|inst1~combout $end
$var wire 1 H! inst1|inst63|inst3~q $end
$var wire 1 I! inst1|inst67|inst1~combout $end
$var wire 1 J! inst1|inst67|inst3~q $end
$var wire 1 K! inst1|inst79|inst6~8_combout $end
$var wire 1 L! inst1|inst43|inst1~combout $end
$var wire 1 M! inst1|inst43|inst3~q $end
$var wire 1 N! inst1|inst39|inst1~combout $end
$var wire 1 O! inst1|inst39|inst3~q $end
$var wire 1 P! inst1|inst79|inst6~4_combout $end
$var wire 1 Q! inst1|inst79|inst1~combout $end
$var wire 1 R! inst1|inst79|inst3~q $end
$var wire 1 S! inst1|inst19|inst1~combout $end
$var wire 1 T! inst1|inst19|inst3~feeder_combout $end
$var wire 1 U! inst1|inst19|inst3~q $end
$var wire 1 V! inst1|inst79|inst6~1_combout $end
$var wire 1 W! inst1|inst27|inst1~combout $end
$var wire 1 X! inst1|inst27|inst3~q $end
$var wire 1 Y! inst1|inst23|inst1~combout $end
$var wire 1 Z! inst1|inst23|inst3~q $end
$var wire 1 [! inst1|inst79|inst6~2_combout $end
$var wire 1 \! inst1|inst31|inst1~combout $end
$var wire 1 ]! inst1|inst31|inst3~q $end
$var wire 1 ^! inst1|inst35|inst1~combout $end
$var wire 1 _! inst1|inst35|inst3~q $end
$var wire 1 `! inst1|inst79|inst6~3_combout $end
$var wire 1 a! inst1|inst79|inst6~5_combout $end
$var wire 1 b! inst1|inst71|inst1~combout $end
$var wire 1 c! inst1|inst71|inst3~q $end
$var wire 1 d! inst1|inst75|inst1~combout $end
$var wire 1 e! inst1|inst75|inst3~q $end
$var wire 1 f! inst1|inst79|inst6~9_combout $end
$var wire 1 g! inst1|inst79|inst6~10_combout $end
$var wire 1 h! inst1|inst64|inst1~combout $end
$var wire 1 i! D2~input_o $end
$var wire 1 j! inst1|inst64|inst3~q $end
$var wire 1 k! inst1|inst68|inst1~combout $end
$var wire 1 l! inst1|inst68|inst3~q $end
$var wire 1 m! inst1|inst80|inst6~8_combout $end
$var wire 1 n! inst1|inst56|inst1~combout $end
$var wire 1 o! inst1|inst56|inst3~q $end
$var wire 1 p! inst1|inst56|inst6~0_combout $end
$var wire 1 q! inst1|inst60|inst1~combout $end
$var wire 1 r! inst1|inst60|inst3~q $end
$var wire 1 s! inst1|inst52|inst1~combout $end
$var wire 1 t! inst1|inst52|inst3~q $end
$var wire 1 u! inst1|inst48|inst1~combout $end
$var wire 1 v! inst1|inst48|inst3~q $end
$var wire 1 w! inst1|inst80|inst6~6_combout $end
$var wire 1 x! inst1|inst80|inst6~7_combout $end
$var wire 1 y! inst1|inst24|inst1~combout $end
$var wire 1 z! inst1|inst24|inst3~q $end
$var wire 1 {! inst1|inst28|inst1~combout $end
$var wire 1 |! inst1|inst28|inst3~q $end
$var wire 1 }! inst1|inst80|inst6~2_combout $end
$var wire 1 ~! inst1|inst44|inst1~combout $end
$var wire 1 !" inst1|inst44|inst3~feeder_combout $end
$var wire 1 "" inst1|inst44|inst3~q $end
$var wire 1 #" inst1|inst40|inst1~combout $end
$var wire 1 $" inst1|inst40|inst3~q $end
$var wire 1 %" inst1|inst80|inst6~4_combout $end
$var wire 1 &" inst1|inst36|inst1~combout $end
$var wire 1 '" inst1|inst36|inst3~q $end
$var wire 1 (" inst1|inst32|inst1~combout $end
$var wire 1 )" inst1|inst32|inst3~q $end
$var wire 1 *" inst1|inst80|inst6~3_combout $end
$var wire 1 +" inst1|inst80|inst1~combout $end
$var wire 1 ," inst1|inst80|inst3~q $end
$var wire 1 -" inst1|inst20|inst1~combout $end
$var wire 1 ." inst1|inst20|inst3~q $end
$var wire 1 /" inst1|inst80|inst6~1_combout $end
$var wire 1 0" inst1|inst80|inst6~5_combout $end
$var wire 1 1" inst1|inst72|inst1~combout $end
$var wire 1 2" inst1|inst72|inst3~q $end
$var wire 1 3" inst1|inst76|inst1~combout $end
$var wire 1 4" inst1|inst76|inst3~q $end
$var wire 1 5" inst1|inst80|inst6~9_combout $end
$var wire 1 6" inst1|inst80|inst6~10_combout $end
$var wire 1 7" inst1|inst65|inst1~combout $end
$var wire 1 8" D3~input_o $end
$var wire 1 9" inst1|inst65|inst3~q $end
$var wire 1 :" inst1|inst69|inst1~combout $end
$var wire 1 ;" inst1|inst69|inst3~q $end
$var wire 1 <" inst1|inst81|inst6~8_combout $end
$var wire 1 =" inst1|inst29|inst1~combout $end
$var wire 1 >" inst1|inst29|inst3~q $end
$var wire 1 ?" inst1|inst25|inst1~combout $end
$var wire 1 @" inst1|inst25|inst3~q $end
$var wire 1 A" inst1|inst81|inst6~2_combout $end
$var wire 1 B" inst1|inst45|inst1~combout $end
$var wire 1 C" inst1|inst45|inst3~q $end
$var wire 1 D" inst1|inst41|inst1~combout $end
$var wire 1 E" inst1|inst41|inst3~q $end
$var wire 1 F" inst1|inst81|inst6~4_combout $end
$var wire 1 G" inst1|inst33|inst1~combout $end
$var wire 1 H" inst1|inst33|inst3~q $end
$var wire 1 I" inst1|inst37|inst1~combout $end
$var wire 1 J" inst1|inst37|inst3~q $end
$var wire 1 K" inst1|inst81|inst6~3_combout $end
$var wire 1 L" inst1|inst81|inst1~combout $end
$var wire 1 M" inst1|inst81|inst3~q $end
$var wire 1 N" inst1|inst21|inst1~combout $end
$var wire 1 O" inst1|inst21|inst3~q $end
$var wire 1 P" inst1|inst81|inst6~1_combout $end
$var wire 1 Q" inst1|inst81|inst6~5_combout $end
$var wire 1 R" inst1|inst57|inst1~combout $end
$var wire 1 S" inst1|inst57|inst3~q $end
$var wire 1 T" inst1|inst57|inst6~0_combout $end
$var wire 1 U" inst1|inst61|inst1~combout $end
$var wire 1 V" inst1|inst61|inst3~q $end
$var wire 1 W" inst1|inst53|inst1~combout $end
$var wire 1 X" inst1|inst53|inst3~q $end
$var wire 1 Y" inst1|inst49|inst1~combout $end
$var wire 1 Z" inst1|inst49|inst3~q $end
$var wire 1 [" inst1|inst81|inst6~6_combout $end
$var wire 1 \" inst1|inst81|inst6~7_combout $end
$var wire 1 ]" inst1|inst77|inst1~combout $end
$var wire 1 ^" inst1|inst77|inst3~q $end
$var wire 1 _" inst1|inst73|inst1~combout $end
$var wire 1 `" inst1|inst73|inst3~q $end
$var wire 1 a" inst1|inst81|inst6~9_combout $end
$var wire 1 b" inst1|inst81|inst6~10_combout $end
$var wire 1 c" inst|inst50|inst1~combout $end
$var wire 1 d" D4~input_o $end
$var wire 1 e" inst|inst50|inst3~q $end
$var wire 1 f" inst|inst46|inst1~combout $end
$var wire 1 g" inst|inst46|inst3~q $end
$var wire 1 h" inst|inst78|inst6~6_combout $end
$var wire 1 i" inst|inst58|inst1~combout $end
$var wire 1 j" inst|inst58|inst3~q $end
$var wire 1 k" inst|inst54|inst1~combout $end
$var wire 1 l" inst|inst54|inst3~q $end
$var wire 1 m" inst|inst54|inst6~0_combout $end
$var wire 1 n" inst|inst78|inst6~7_combout $end
$var wire 1 o" inst|inst62|inst1~combout $end
$var wire 1 p" inst|inst62|inst3~q $end
$var wire 1 q" inst|inst66|inst1~combout $end
$var wire 1 r" inst|inst66|inst3~q $end
$var wire 1 s" inst|inst78|inst6~8_combout $end
$var wire 1 t" inst|inst34|inst1~combout $end
$var wire 1 u" inst|inst34|inst3~q $end
$var wire 1 v" inst|inst30|inst1~combout $end
$var wire 1 w" inst|inst30|inst3~q $end
$var wire 1 x" inst|inst78|inst6~3_combout $end
$var wire 1 y" inst|inst78|inst1~combout $end
$var wire 1 z" inst|inst78|inst3~q $end
$var wire 1 {" inst|inst|inst1~combout $end
$var wire 1 |" inst|inst|inst3~q $end
$var wire 1 }" inst|inst78|inst6~1_combout $end
$var wire 1 ~" inst|inst22|inst1~combout $end
$var wire 1 !# inst|inst22|inst3~q $end
$var wire 1 "# inst|inst26|inst1~combout $end
$var wire 1 ## inst|inst26|inst3~q $end
$var wire 1 $# inst|inst78|inst6~2_combout $end
$var wire 1 %# inst|inst38|inst1~combout $end
$var wire 1 &# inst|inst38|inst3~q $end
$var wire 1 '# inst|inst42|inst1~combout $end
$var wire 1 (# inst|inst42|inst3~q $end
$var wire 1 )# inst|inst78|inst6~4_combout $end
$var wire 1 *# inst|inst78|inst6~5_combout $end
$var wire 1 +# inst|inst74|inst1~combout $end
$var wire 1 ,# inst|inst74|inst3~q $end
$var wire 1 -# inst|inst70|inst1~combout $end
$var wire 1 .# inst|inst70|inst3~q $end
$var wire 1 /# inst|inst78|inst6~9_combout $end
$var wire 1 0# inst|inst78|inst6~10_combout $end
$var wire 1 1# inst|inst51|inst1~combout $end
$var wire 1 2# D5~input_o $end
$var wire 1 3# inst|inst51|inst3~feeder_combout $end
$var wire 1 4# inst|inst51|inst3~q $end
$var wire 1 5# inst|inst47|inst1~combout $end
$var wire 1 6# inst|inst47|inst3~q $end
$var wire 1 7# inst|inst79|inst6~6_combout $end
$var wire 1 8# inst|inst59|inst1~combout $end
$var wire 1 9# inst|inst59|inst3~q $end
$var wire 1 :# inst|inst55|inst1~combout $end
$var wire 1 ;# inst|inst55|inst3~q $end
$var wire 1 <# inst|inst55|inst6~0_combout $end
$var wire 1 =# inst|inst79|inst6~7_combout $end
$var wire 1 ># inst|inst67|inst1~combout $end
$var wire 1 ?# inst|inst67|inst3~feeder_combout $end
$var wire 1 @# inst|inst67|inst3~q $end
$var wire 1 A# inst|inst63|inst1~combout $end
$var wire 1 B# inst|inst63|inst3~q $end
$var wire 1 C# inst|inst79|inst6~8_combout $end
$var wire 1 D# inst|inst75|inst1~combout $end
$var wire 1 E# inst|inst75|inst3~q $end
$var wire 1 F# inst|inst71|inst1~combout $end
$var wire 1 G# inst|inst71|inst3~q $end
$var wire 1 H# inst|inst79|inst6~9_combout $end
$var wire 1 I# inst|inst19|inst1~combout $end
$var wire 1 J# inst|inst19|inst3~q $end
$var wire 1 K# inst|inst79|inst1~combout $end
$var wire 1 L# inst|inst79|inst3~q $end
$var wire 1 M# inst|inst79|inst6~1_combout $end
$var wire 1 N# inst|inst27|inst1~combout $end
$var wire 1 O# inst|inst27|inst3~q $end
$var wire 1 P# inst|inst23|inst1~combout $end
$var wire 1 Q# inst|inst23|inst3~q $end
$var wire 1 R# inst|inst79|inst6~2_combout $end
$var wire 1 S# inst|inst35|inst1~combout $end
$var wire 1 T# inst|inst35|inst3~q $end
$var wire 1 U# inst|inst31|inst1~combout $end
$var wire 1 V# inst|inst31|inst3~q $end
$var wire 1 W# inst|inst79|inst6~3_combout $end
$var wire 1 X# inst|inst39|inst1~combout $end
$var wire 1 Y# inst|inst39|inst3~q $end
$var wire 1 Z# inst|inst43|inst1~combout $end
$var wire 1 [# inst|inst43|inst3~feeder_combout $end
$var wire 1 \# inst|inst43|inst3~q $end
$var wire 1 ]# inst|inst79|inst6~4_combout $end
$var wire 1 ^# inst|inst79|inst6~5_combout $end
$var wire 1 _# inst|inst79|inst6~10_combout $end
$var wire 1 `# inst|inst72|inst1~combout $end
$var wire 1 a# D6~input_o $end
$var wire 1 b# inst|inst72|inst3~q $end
$var wire 1 c# inst|inst76|inst1~combout $end
$var wire 1 d# inst|inst76|inst3~q $end
$var wire 1 e# inst|inst80|inst6~9_combout $end
$var wire 1 f# inst|inst20|inst1~combout $end
$var wire 1 g# inst|inst20|inst3~q $end
$var wire 1 h# inst|inst80|inst1~combout $end
$var wire 1 i# inst|inst80|inst3~q $end
$var wire 1 j# inst|inst80|inst6~1_combout $end
$var wire 1 k# inst|inst28|inst1~combout $end
$var wire 1 l# inst|inst28|inst3~q $end
$var wire 1 m# inst|inst24|inst1~combout $end
$var wire 1 n# inst|inst24|inst3~q $end
$var wire 1 o# inst|inst80|inst6~2_combout $end
$var wire 1 p# inst|inst44|inst1~combout $end
$var wire 1 q# inst|inst44|inst3~q $end
$var wire 1 r# inst|inst40|inst1~combout $end
$var wire 1 s# inst|inst40|inst3~q $end
$var wire 1 t# inst|inst80|inst6~4_combout $end
$var wire 1 u# inst|inst32|inst1~combout $end
$var wire 1 v# inst|inst32|inst3~q $end
$var wire 1 w# inst|inst36|inst1~combout $end
$var wire 1 x# inst|inst36|inst3~q $end
$var wire 1 y# inst|inst80|inst6~3_combout $end
$var wire 1 z# inst|inst80|inst6~5_combout $end
$var wire 1 {# inst|inst56|inst1~combout $end
$var wire 1 |# inst|inst56|inst3~q $end
$var wire 1 }# inst|inst56|inst6~0_combout $end
$var wire 1 ~# inst|inst60|inst1~combout $end
$var wire 1 !$ inst|inst60|inst3~q $end
$var wire 1 "$ inst|inst48|inst1~combout $end
$var wire 1 #$ inst|inst48|inst3~q $end
$var wire 1 $$ inst|inst52|inst1~combout $end
$var wire 1 %$ inst|inst52|inst3~feeder_combout $end
$var wire 1 &$ inst|inst52|inst3~q $end
$var wire 1 '$ inst|inst80|inst6~6_combout $end
$var wire 1 ($ inst|inst80|inst6~7_combout $end
$var wire 1 )$ inst|inst68|inst1~combout $end
$var wire 1 *$ inst|inst68|inst3~q $end
$var wire 1 +$ inst|inst64|inst1~combout $end
$var wire 1 ,$ inst|inst64|inst3~q $end
$var wire 1 -$ inst|inst80|inst6~8_combout $end
$var wire 1 .$ inst|inst80|inst6~10_combout $end
$var wire 1 /$ inst|inst37|inst1~combout $end
$var wire 1 0$ D7~input_o $end
$var wire 1 1$ inst|inst37|inst3~q $end
$var wire 1 2$ inst|inst33|inst1~combout $end
$var wire 1 3$ inst|inst33|inst3~q $end
$var wire 1 4$ inst|inst81|inst6~3_combout $end
$var wire 1 5$ inst|inst21|inst1~combout $end
$var wire 1 6$ inst|inst21|inst3~q $end
$var wire 1 7$ inst|inst81|inst1~combout $end
$var wire 1 8$ inst|inst81|inst3~q $end
$var wire 1 9$ inst|inst81|inst6~1_combout $end
$var wire 1 :$ inst|inst45|inst1~combout $end
$var wire 1 ;$ inst|inst45|inst3~q $end
$var wire 1 <$ inst|inst41|inst1~combout $end
$var wire 1 =$ inst|inst41|inst3~q $end
$var wire 1 >$ inst|inst81|inst6~4_combout $end
$var wire 1 ?$ inst|inst29|inst1~combout $end
$var wire 1 @$ inst|inst29|inst3~q $end
$var wire 1 A$ inst|inst25|inst1~combout $end
$var wire 1 B$ inst|inst25|inst3~q $end
$var wire 1 C$ inst|inst81|inst6~2_combout $end
$var wire 1 D$ inst|inst81|inst6~5_combout $end
$var wire 1 E$ inst|inst61|inst1~combout $end
$var wire 1 F$ inst|inst61|inst3~q $end
$var wire 1 G$ inst|inst57|inst1~combout $end
$var wire 1 H$ inst|inst57|inst3~q $end
$var wire 1 I$ inst|inst57|inst6~0_combout $end
$var wire 1 J$ inst|inst49|inst1~combout $end
$var wire 1 K$ inst|inst49|inst3~q $end
$var wire 1 L$ inst|inst53|inst1~combout $end
$var wire 1 M$ inst|inst53|inst3~q $end
$var wire 1 N$ inst|inst81|inst6~6_combout $end
$var wire 1 O$ inst|inst81|inst6~7_combout $end
$var wire 1 P$ inst|inst77|inst1~combout $end
$var wire 1 Q$ inst|inst77|inst3~q $end
$var wire 1 R$ inst|inst73|inst1~combout $end
$var wire 1 S$ inst|inst73|inst3~q $end
$var wire 1 T$ inst|inst81|inst6~9_combout $end
$var wire 1 U$ inst|inst65|inst1~combout $end
$var wire 1 V$ inst|inst65|inst3~q $end
$var wire 1 W$ inst|inst69|inst1~combout $end
$var wire 1 X$ inst|inst69|inst3~q $end
$var wire 1 Y$ inst|inst81|inst6~8_combout $end
$var wire 1 Z$ inst|inst81|inst6~10_combout $end
$upscope $end
$upscope $end
$enddefinitions $end
#0
$dumpvars
0!
0"
1#
0$
1%
1&
1'
1(
1)
1*
1+
1,
0-
1.
1/
z0
z1
z2
z3
z4
z5
z6
z7
08
19
x:
1;
1<
1=
0>
z?
z@
zA
zB
zC
zD
zE
zF
zG
zH
zI
1J
1K
1L
0M
0N
0O
0P
1Q
0R
0S
0T
0U
0V
1W
0X
0Y
1Z
0[
1\
0]
0^
0_
0`
0a
0b
0c
1d
0e
0f
0g
0h
0i
0j
0k
1l
0m
0n
0o
0p
0q
0r
0s
1t
1u
0v
0w
0x
0y
0z
0{
0|
0}
1~
0!!
0"!
0#!
1$!
0%!
0&!
0'!
1(!
0)!
0*!
0+!
0,!
1-!
0.!
0/!
10!
01!
02!
03!
04!
05!
06!
17!
18!
09!
0:!
1;!
1<!
0=!
1>!
0?!
0@!
0A!
0B!
1C!
0D!
0E!
1F!
0G!
0H!
0I!
0J!
1K!
0L!
0M!
0N!
0O!
1P!
0Q!
0R!
0S!
1T!
0U!
1V!
0W!
0X!
0Y!
0Z!
1[!
0\!
0]!
0^!
0_!
1`!
1a!
0b!
0c!
0d!
0e!
1f!
1g!
0h!
1i!
0j!
0k!
0l!
1m!
0n!
0o!
1p!
0q!
0r!
0s!
0t!
0u!
0v!
1w!
1x!
0y!
0z!
0{!
0|!
1}!
0~!
1!"
0""
0#"
0$"
1%"
0&"
0'"
0("
0)"
1*"
0+"
0,"
0-"
0."
1/"
10"
01"
02"
03"
04"
15"
16"
07"
18"
09"
0:"
0;"
1<"
0="
0>"
0?"
0@"
1A"
0B"
0C"
0D"
0E"
1F"
0G"
0H"
0I"
0J"
1K"
0L"
0M"
0N"
0O"
1P"
1Q"
0R"
0S"
1T"
0U"
0V"
0W"
0X"
0Y"
0Z"
1["
1\"
0]"
0^"
0_"
0`"
1a"
1b"
0c"
1d"
0e"
0f"
0g"
1h"
0i"
0j"
0k"
0l"
1m"
1n"
0o"
0p"
0q"
0r"
1s"
0t"
0u"
0v"
0w"
1x"
0y"
0z"
0{"
0|"
1}"
0~"
0!#
0"#
0##
1$#
0%#
0&#
0'#
0(#
1)#
1*#
0+#
0,#
0-#
0.#
1/#
10#
01#
12#
13#
04#
05#
06#
17#
08#
09#
0:#
0;#
1<#
1=#
0>#
1?#
0@#
0A#
0B#
1C#
0D#
0E#
0F#
0G#
1H#
0I#
0J#
0K#
0L#
1M#
0N#
0O#
0P#
0Q#
1R#
0S#
0T#
0U#
0V#
1W#
0X#
0Y#
0Z#
1[#
0\#
1]#
1^#
1_#
0`#
1a#
0b#
0c#
0d#
1e#
0f#
0g#
0h#
0i#
1j#
0k#
0l#
0m#
0n#
1o#
0p#
0q#
0r#
0s#
1t#
0u#
0v#
0w#
0x#
1y#
1z#
0{#
0|#
1}#
0~#
0!$
0"$
0#$
0$$
1%$
0&$
1'$
1($
0)$
0*$
0+$
0,$
1-$
1.$
0/$
10$
01$
02$
03$
14$
05$
06$
07$
08$
19$
0:$
0;$
0<$
0=$
1>$
0?$
0@$
0A$
0B$
1C$
1D$
0E$
0F$
0G$
0H$
1I$
0J$
0K$
0L$
0M$
1N$
1O$
0P$
0Q$
0R$
0S$
1T$
0U$
0V$
0W$
0X$
1Y$
1Z$
$end
#2500
0/
0K
0L
1e
15$
1f#
1I#
1{"
1N"
1-"
1S!
1q
16$
1g#
1J#
1|"
1O"
1."
1U!
1r
#7500
1/
1K
1L
0e
05$
0f#
0I#
0{"
0N"
0-"
0S!
0q
#10000
1-
0%
0&
0'
0(
0)
0*
0,
00$
02#
0d"
08"
0i!
0;!
0W
1R
0[#
0?#
03#
0!"
0T!
0<!
0(!
0Z
#12500
0/
0K
0L
1e
1A$
1m#
1P#
1~"
1?"
1y!
1Y!
1f
1n#
#17500
1/
1K
1L
0e
0A$
0m#
0P#
0~"
0?"
0y!
0Y!
0f
#20000
1$
0-
1,
10$
0R
1M
#22500
0/
0K
0L
1]
1?$
1k#
1N#
1"#
1="
1{!
1W!
1i
1@$
1l#
#27500
1/
1K
1L
0]
0?$
0k#
0N#
0"#
0="
0{!
0W!
0i
#30000
0+
1*
1-
0,
00$
1R
12#
0a#
1[#
1?#
13#
0%$
#32500
0/
0K
0L
1]
12$
1u#
1U#
1v"
1G"
1("
1\!
1b
1V#
#37500
1/
1K
1L
0]
02$
0u#
0U#
0v"
0G"
0("
0\!
0b
#40000
1"
0$
0-
1,
10$
0R
0M
1N
#42500
0/
0K
0L
1P
1/$
1w#
1S#
1t"
1I"
1&"
1^!
1`
11$
1T#
#47500
1/
1K
1L
0P
0/$
0w#
0S#
0t"
0I"
0&"
0^!
0`
#50000
1+
1-
0,
00$
1R
1a#
1%$
#52500
0/
0K
0L
1P
1<$
1r#
1X#
1%#
1D"
1#"
1N!
1Y
1s#
1Y#
#57500
1/
1K
1L
0P
0<$
0r#
0X#
0%#
0D"
0#"
0N!
0Y
#60000
1$
0-
1,
10$
0R
1M
#62500
0/
0K
0L
1T
1:$
1p#
1Z#
1'#
1B"
1~!
1L!
1V
1;$
1q#
1\#
#67500
1/
1K
1L
0T
0:$
0p#
0Z#
0'#
0B"
0~!
0L!
0V
#70000
1)
0*
0+
1-
0,
00$
1R
0a#
02#
1d"
0%$
0[#
0?#
03#
#72500
0/
0K
0L
1T
1J$
1"$
15#
1f"
1Y"
1u!
1A!
1'!
1g"
#77500
1/
1K
1L
0T
0J$
0"$
05#
0f"
0Y"
0u!
0A!
0'!
#80000
1!
0"
0$
0-
1,
10$
0R
0M
0N
1O
#82500
0/
0K
0L
1!!
1L$
1$$
11#
1c"
1W"
1s!
1?!
1*!
1M$
1e"
#87500
1/
1K
1L
0!!
0L$
0$$
01#
0c"
0W"
0s!
0?!
0*!
#90000
1+
1-
0,
00$
1R
1a#
1%$
#92500
0/
0K
0L
1!!
1G$
1{#
1:#
1k"
1R"
1n!
1:!
1"!
1|#
1l"
#97500
1/
1K
1L
0!!
0G$
0{#
0:#
0k"
0R"
0n!
0:!
0"!
#100000
1$
0-
1,
10$
0R
1M
#102500
0/
0K
0L
1v
1E$
1~#
18#
1i"
1U"
1q!
1D!
1.!
1F$
1!$
1j"
#107500
1/
1K
1L
0v
0E$
0~#
08#
0i"
0U"
0q!
0D!
0.!
#110000
1*
0+
1-
0,
00$
1R
0a#
12#
0%$
1[#
1?#
13#
#112500
0/
0K
0L
1v
1U$
1+$
1A#
1o"
17"
1h!
1G!
1x
1B#
1p"
#117500
1/
1K
1L
0v
0U$
0+$
0A#
0o"
07"
0h!
0G!
0x
#120000
1"
0$
0-
1,
10$
0R
0M
1N
#122500
0/
0K
0L
1z
1W$
1)$
1>#
1q"
1:"
1k!
1I!
1{
1X$
1@#
1r"
#127500
1/
1K
1L
0z
0W$
0)$
0>#
0q"
0:"
0k!
0I!
0{
#130000
1+
1-
0,
00$
1R
1a#
1%$
#132500
0/
0K
0L
1z
1R$
1`#
1F#
1-#
1_"
11"
1b!
11!
1b#
1G#
1.#
#137500
1/
1K
1L
0z
0R$
0`#
0F#
0-#
0_"
01"
0b!
01!
#140000
1$
0-
1,
10$
0R
1M
#142500
0/
0K
0L
1m
1P$
1c#
1D#
1+#
1]"
13"
1d!
14!
1Q$
1d#
1E#
1,#
#147500
1/
1K
1L
0m
0P$
0c#
0D#
0+#
0]"
03"
0d!
04!
#150000
1(
0)
0*
0+
1-
0,
00$
1R
0a#
02#
0d"
18"
0%$
0[#
0?#
03#
#152500
0/
0K
0L
1m
17$
1h#
1K#
1y"
1L"
1+"
1Q!
1n
1M"
#157500
1/
1K
1L
0m
07$
0h#
0K#
0y"
0L"
0+"
0Q!
0n
#160000
0.
0!
0"
0$
0-
1,
0/
0K
10$
0R
0M
0N
0O
0Q
0L
19!
1B
1C
1D
1E
1F
1G
1H
1I
1e
17
16
15
14
13
12
11
10
1p
