SAP1-Project/CI74138/simulation/qsim/74LS138.msim.vcd
$comment
	File created using the following command:
		vcd file 74LS138.msim.vcd -direction
$end
$date
	Fri Feb 07 09:23:51 2025
$end
$version
	ModelSim Version 2020.1
$end
$timescale
	1ps
$end

$scope module CI74LS138_vlg_vec_tst $end
$var reg 1 ! A $end
$var reg 1 " B $end
$var reg 1 # C $end
$var reg 1 $ G1 $end
$var reg 1 % G2A $end
$var reg 1 & G2B $end
$var wire 1 ' Y0 $end
$var wire 1 ( Y1 $end
$var wire 1 ) Y2 $end
$var wire 1 * Y3 $end
$var wire 1 + Y4 $end
$var wire 1 , Y5 $end
$var wire 1 - Y6 $end
$var wire 1 . Y7 $end

$scope module i1 $end
$var wire 1 / gnd $end
$var wire 1 0 vcc $end
$var wire 1 1 unknown $end
$var tri1 1 2 devclrn $end
$var tri1 1 3 devpor $end
$var tri1 1 4 devoe $end
$var wire 1 5 ~QUARTUS_CREATED_GND~I_combout $end
$var wire 1 6 ~QUARTUS_CREATED_UNVM~~busy $end
$var wire 1 7 ~QUARTUS_CREATED_ADC1~~eoc $end
$var wire 1 8 ~QUARTUS_CREATED_ADC2~~eoc $end
$var wire 1 9 Y7~output_o $end
$var wire 1 : Y6~output_o $end
$var wire 1 ; Y5~output_o $end
$var wire 1 < Y4~output_o $end
$var wire 1 = Y3~output_o $end
$var wire 1 > Y2~output_o $end
$var wire 1 ? Y1~output_o $end
$var wire 1 @ Y0~output_o $end
$var wire 1 A A~input_o $end
$var wire 1 B B~input_o $end
$var wire 1 C G1~input_o $end
$var wire 1 D G2B~input_o $end
$var wire 1 E G2A~input_o $end
$var wire 1 F C~input_o $end
$var wire 1 G inst24~0_combout $end
$var wire 1 H inst24~combout $end
$var wire 1 I inst23~combout $end
$var wire 1 J inst22~combout $end
$var wire 1 K inst21~combout $end
$var wire 1 L inst18~0_combout $end
$var wire 1 M inst20~combout $end
$var wire 1 N inst19~combout $end
$var wire 1 O inst18~combout $end
$var wire 1 P inst~combout $end
$upscope $end
$upscope $end
$enddefinitions $end
#0
$dumpvars
0!
0"
0#
0$
1%
1&
1'
1(
1)
1*
1+
1,
1-
1.
0/
10
x1
12
13
14
05
z6
z7
z8
19
1:
1;
1<
1=
1>
1?
1@
0A
0B
0C
1D
1E
0F
0G
0H
0I
0J
0K
0L
0M
0N
0O
0P
$end
#10000
0%
0&
0D
0E
#20000
1$
1C
1L
1P
0@
0'
#30000
1!
1A
0P
1O
0?
1@
1'
0(
#40000
1"
0!
0A
1B
0O
1N
0>
1?
1(
0)
#50000
1!
1A
0N
1M
0=
1>
1)
0*
#60000
1#
0"
0!
0A
0B
1F
1P
0M
0L
1G
1=
0@
0P
1K
0'
1*
0<
1@
1'
0+
#70000
1!
1A
0K
1J
0;
1<
1+
0,
#80000
1"
0!
0A
1B
0J
1I
0:
1;
1,
0-
#90000
1!
1A
0I
1H
09
1:
1-
0.
#100000
0$
0#
0"
0!
0A
0B
0F
0C
1K
0H
0G
19
0<
0K
0+
1.
1<
1+
