SAP1-Project/CI74173/simulation/qsim/CI74173.msim.vcd
$comment
	File created using the following command:
		vcd file CI74173.msim.vcd -direction
$end
$date
	Thu Mar 20 00:08:37 2025
$end
$version
	ModelSim Version 2020.1
$end
$timescale
	1ps
$end

$scope module CI74173_vlg_vec_tst $end
$var reg 1 ! CP $end
$var reg 1 " MR $end
$var reg 1 # NE1 $end
$var reg 1 $ NE2 $end
$var reg 1 % NOE1 $end
$var reg 1 & NOE2 $end
$var reg 1 ' O0 $end
$var reg 1 ( O1 $end
$var reg 1 ) O2 $end
$var reg 1 * O3 $end
$var wire 1 + Q0 $end
$var wire 1 , Q1 $end
$var wire 1 - Q2 $end
$var wire 1 . Q3 $end

$scope module i1 $end
$var wire 1 / gnd $end
$var wire 1 0 vcc $end
$var wire 1 1 unknown $end
$var tri1 1 2 devclrn $end
$var tri1 1 3 devpor $end
$var tri1 1 4 devoe $end
$var wire 1 5 ~QUARTUS_CREATED_GND~I_combout $end
$var wire 1 6 ~QUARTUS_CREATED_UNVM~~busy $end
$var wire 1 7 ~QUARTUS_CREATED_ADC1~~eoc $end
$var wire 1 8 Q0~output_o $end
$var wire 1 9 Q1~output_o $end
$var wire 1 : Q2~output_o $end
$var wire 1 ; Q3~output_o $end
$var wire 1 < CP~input_o $end
$var wire 1 = CP~inputclkctrl_outclk $end
$var wire 1 > O0~input_o $end
$var wire 1 ? MR~input_o $end
$var wire 1 @ MR~inputclkctrl_outclk $end
$var wire 1 A NE1~input_o $end
$var wire 1 B NE2~input_o $end
$var wire 1 C inst3~combout $end
$var wire 1 D inst22~q $end
$var wire 1 E NOE2~input_o $end
$var wire 1 F NOE1~input_o $end
$var wire 1 G inst9~combout $end
$var wire 1 H O1~input_o $end
$var wire 1 I inst23~feeder_combout $end
$var wire 1 J inst23~q $end
$var wire 1 K O2~input_o $end
$var wire 1 L inst24~feeder_combout $end
$var wire 1 M inst24~q $end
$var wire 1 N O3~input_o $end
$var wire 1 O inst25~feeder_combout $end
$var wire 1 P inst25~q $end
$upscope $end
$upscope $end
$enddefinitions $end
#0
$dumpvars
0!
0"
0#
0$
0%
0&
1'
1(
1)
1*
1+
1,
1-
1.
0/
10
x1
12
13
14
05
z6
z7
18
19
1:
1;
0<
0=
1>
0?
0@
0A
0B
1C
0D
0E
0F
1G
1H
1I
0J
1K
1L
0M
1N
1O
0P
$end
#10000
1!
1<
1=
#20000
0!
0<
0=
1D
1J
1M
1P
0;
0:
09
08
0+
0,
0-
0.
#30000
1!
1<
1=
#40000
0!
0<
0=
#50000
1!
1<
1=
#60000
0!
0<
0=
#70000
1!
1<
1=
#80000
0!
0<
0=
#90000
1!
1<
1=
#100000
0!
0<
0=
#110000
1!
1<
1=
#120000
0!
0<
0=
#130000
1!
1<
1=
#140000
0!
0<
0=
#150000
1!
1<
1=
#160000
0!
0<
0=
#170000
1!
1<
1=
#180000
0!
0<
0=
#190000
1!
1<
1=
#200000
0!
0<
0=
#210000
1!
1<
1=
#220000
0!
0<
0=
#230000
1!
1<
1=
#240000
0!
0<
0=
#250000
1!
1<
1=
#260000
0!
0<
0=
#270000
1!
1<
1=
#280000
0!
0<
0=
#290000
1!
1<
1=
#300000
0!
0<
0=
#310000
1!
1<
1=
#320000
0!
0<
0=
#330000
1!
1<
1=
#340000
0!
0<
0=
#350000
1!
1<
1=
#360000
0!
0<
0=
#370000
1!
1<
1=
#380000
0!
0<
0=
#390000
1!
1<
1=
#400000
0!
0<
0=
#410000
1!
1<
1=
#420000
0!
0<
0=
#430000
1!
1<
1=
#440000
0!
0<
0=
#450000
1!
1<
1=
#460000
0!
0<
0=
#470000
1!
1<
1=
#480000
0!
0<
0=
#490000
1!
1<
1=
#500000
0!
0<
0=
#510000
1!
1<
1=
#520000
0!
0<
0=
#530000
1!
1<
1=
#540000
0!
0<
0=
#550000
1!
1<
1=
#560000
0!
0<
0=
#570000
1!
1<
1=
#580000
0!
0<
0=
#590000
1!
1<
1=
#600000
0!
0<
0=
#610000
1!
1<
1=
#620000
0!
0<
0=
#630000
1!
1<
1=
#640000
0!
0<
0=
#650000
1!
1<
1=
#660000
0!
0<
0=
#670000
1!
1<
1=
#680000
0!
0<
0=
#690000
1!
1<
1=
#700000
0!
0<
0=
#710000
1!
1<
1=
#720000
0!
0<
0=
#730000
1!
1<
1=
#740000
0!
0<
0=
#750000
1!
1<
1=
#760000
0!
0<
0=
#770000
1!
1<
1=
#780000
0!
0<
0=
#790000
1!
1<
1=
#800000
0!
0<
0=
#810000
1!
1<
1=
#820000
0!
0<
0=
#830000
1!
1<
1=
#840000
0!
0<
0=
#850000
1!
1<
1=
#860000
0!
0<
0=
#870000
1!
1<
1=
#880000
0!
0<
0=
#890000
1!
1<
1=
#900000
0!
0<
0=
#910000
1!
1<
1=
#920000
0!
0<
0=
#930000
1!
1<
1=
#940000
0!
0<
0=
#950000
1!
1<
1=
#960000
0!
0<
0=
#970000
1!
1<
1=
#980000
0!
0<
0=
#990000
1!
1<
1=
