SAP1-Project/CI74189RAM/simulation/qsim/CI74189RAM.msim.vcd
$comment
	File created using the following command:
		vcd file CI74189RAM.msim.vcd -direction
$end
$date
	Sun Mar 16 15:10:02 2025
$end
$version
	ModelSim Version 2020.1
$end
$timescale
	1ps
$end

$scope module CI74189RAM_vlg_vec_tst $end
$var reg 1 ! A0 $end
$var reg 1 " A1 $end
$var reg 1 # A2 $end
$var reg 1 $ A3 $end
$var reg 1 % CS $end
$var reg 1 & D0 $end
$var reg 1 ' D1 $end
$var reg 1 ( D2 $end
$var reg 1 ) D3 $end
$var reg 1 * RnotW $end
$var wire 1 + O0 $end
$var wire 1 , O1 $end
$var wire 1 - O2 $end
$var wire 1 . O3 $end

$scope module i1 $end
$var wire 1 / gnd $end
$var wire 1 0 vcc $end
$var wire 1 1 unknown $end
$var tri1 1 2 devclrn $end
$var tri1 1 3 devpor $end
$var tri1 1 4 devoe $end
$var wire 1 5 ~QUARTUS_CREATED_GND~I_combout $end
$var wire 1 6 A2~input_o $end
$var wire 1 7 A1~input_o $end
$var wire 1 8 RnotW~input_o $end
$var wire 1 9 A3~input_o $end
$var wire 1 : CS~input_o $end
$var wire 1 ; A0~input_o $end
$var wire 1 < inst66|inst1~combout $end
$var wire 1 = D3~input_o $end
$var wire 1 > inst66|inst3~q $end
$var wire 1 ? inst74|inst~0_combout $end
$var wire 1 @ inst66|inst~0_combout $end
$var wire 1 A inst62|inst~0_combout $end
$var wire 1 B inst62|inst1~combout $end
$var wire 1 C inst62|inst3~feeder_combout $end
$var wire 1 D inst62|inst3~q $end
$var wire 1 E inst70|inst1~combout $end
$var wire 1 F inst70|inst3~q $end
$var wire 1 G inst70|inst~0_combout $end
$var wire 1 H inst78|inst6~1_combout $end
$var wire 1 I inst74|inst1~combout $end
$var wire 1 J inst74|inst3~q $end
$var wire 1 K inst26|inst~0_combout $end
$var wire 1 L inst42|inst~0_combout $end
$var wire 1 M inst|inst1~combout $end
$var wire 1 N inst|inst3~feeder_combout $end
$var wire 1 O inst|inst3~q $end
$var wire 1 P inst|inst~0_combout $end
$var wire 1 Q inst42|inst1~combout $end
$var wire 1 R inst42|inst3~q $end
$var wire 1 S inst26|inst1~combout $end
$var wire 1 T inst26|inst3~q $end
$var wire 1 U inst78|inst6~3_combout $end
$var wire 1 V inst46|inst~0_combout $end
$var wire 1 W inst78|inst1~combout $end
$var wire 1 X inst78|inst3~feeder_combout $end
$var wire 1 Y inst78|inst3~q $end
$var wire 1 Z inst38|inst1~combout $end
$var wire 1 [ inst38|inst3~feeder_combout $end
$var wire 1 \ inst38|inst3~q $end
$var wire 1 ] inst78|inst~0_combout $end
$var wire 1 ^ inst46|inst1~combout $end
$var wire 1 _ inst46|inst3~q $end
$var wire 1 ` inst38|inst~0_combout $end
$var wire 1 a inst78|inst6~2_combout $end
$var wire 1 b inst58|inst~0_combout $end
$var wire 1 c inst30|inst~0_combout $end
$var wire 1 d inst22|inst~0_combout $end
$var wire 1 e inst54|inst~0_combout $end
$var wire 1 f inst30|inst1~combout $end
$var wire 1 g inst30|inst3~feeder_combout $end
$var wire 1 h inst30|inst3~q $end
$var wire 1 i inst54|inst1~combout $end
$var wire 1 j inst54|inst3~q $end
$var wire 1 k inst22|inst1~combout $end
$var wire 1 l inst22|inst3~feeder_combout $end
$var wire 1 m inst22|inst3~q $end
$var wire 1 n inst78|inst6~4_combout $end
$var wire 1 o inst58|inst1~combout $end
$var wire 1 p inst58|inst3~q $end
$var wire 1 q inst|inst~1_combout $end
$var wire 1 r inst34|inst1~combout $end
$var wire 1 s inst34|inst3~q $end
$var wire 1 t inst50|inst1~combout $end
$var wire 1 u inst50|inst3~q $end
$var wire 1 v inst78|inst6~5_combout $end
$var wire 1 w inst78|inst6~6_combout $end
$var wire 1 x inst78|inst6~7_combout $end
$var wire 1 y inst78|inst~1_combout $end
$var wire 1 z inst63|inst1~combout $end
$var wire 1 { D2~input_o $end
$var wire 1 | inst63|inst3~q $end
$var wire 1 } inst71|inst1~combout $end
$var wire 1 ~ inst71|inst3~q $end
$var wire 1 !! inst79|inst6~1_combout $end
$var wire 1 "! inst19|inst1~combout $end
$var wire 1 #! inst19|inst3~q $end
$var wire 1 $! inst43|inst1~combout $end
$var wire 1 %! inst43|inst3~q $end
$var wire 1 &! inst27|inst1~combout $end
$var wire 1 '! inst27|inst3~feeder_combout $end
$var wire 1 (! inst27|inst3~q $end
$var wire 1 )! inst79|inst6~3_combout $end
$var wire 1 *! inst51|inst1~combout $end
$var wire 1 +! inst51|inst3~feeder_combout $end
$var wire 1 ,! inst51|inst3~q $end
$var wire 1 -! inst35|inst1~combout $end
$var wire 1 .! inst35|inst3~q $end
$var wire 1 /! inst79|inst6~5_combout $end
$var wire 1 0! inst79|inst1~combout $end
$var wire 1 1! inst79|inst3~feeder_combout $end
$var wire 1 2! inst79|inst3~q $end
$var wire 1 3! inst47|inst1~combout $end
$var wire 1 4! inst47|inst3~q $end
$var wire 1 5! inst39|inst1~combout $end
$var wire 1 6! inst39|inst3~feeder_combout $end
$var wire 1 7! inst39|inst3~q $end
$var wire 1 8! inst79|inst6~2_combout $end
$var wire 1 9! inst59|inst1~combout $end
$var wire 1 :! inst59|inst3~q $end
$var wire 1 ;! inst31|inst1~combout $end
$var wire 1 <! inst31|inst3~q $end
$var wire 1 =! inst55|inst1~combout $end
$var wire 1 >! inst55|inst3~q $end
$var wire 1 ?! inst23|inst1~combout $end
$var wire 1 @! inst23|inst3~q $end
$var wire 1 A! inst79|inst6~4_combout $end
$var wire 1 B! inst79|inst6~6_combout $end
$var wire 1 C! inst75|inst1~combout $end
$var wire 1 D! inst75|inst3~q $end
$var wire 1 E! inst67|inst1~combout $end
$var wire 1 F! inst67|inst3~feeder_combout $end
$var wire 1 G! inst67|inst3~q $end
$var wire 1 H! inst79|inst6~7_combout $end
$var wire 1 I! inst64|inst1~combout $end
$var wire 1 J! D1~input_o $end
$var wire 1 K! inst64|inst3~q $end
$var wire 1 L! inst72|inst1~combout $end
$var wire 1 M! inst72|inst3~q $end
$var wire 1 N! inst80|inst6~1_combout $end
$var wire 1 O! inst68|inst1~combout $end
$var wire 1 P! inst68|inst3~feeder_combout $end
$var wire 1 Q! inst68|inst3~q $end
$var wire 1 R! inst76|inst1~combout $end
$var wire 1 S! inst76|inst3~q $end
$var wire 1 T! inst52|inst1~combout $end
$var wire 1 U! inst52|inst3~q $end
$var wire 1 V! inst36|inst1~combout $end
$var wire 1 W! inst36|inst3~q $end
$var wire 1 X! inst80|inst6~5_combout $end
$var wire 1 Y! inst40|inst1~combout $end
$var wire 1 Z! inst40|inst3~feeder_combout $end
$var wire 1 [! inst40|inst3~q $end
$var wire 1 \! inst80|inst1~combout $end
$var wire 1 ]! inst80|inst3~q $end
$var wire 1 ^! inst48|inst1~combout $end
$var wire 1 _! inst48|inst3~q $end
$var wire 1 `! inst80|inst6~2_combout $end
$var wire 1 a! inst28|inst1~combout $end
$var wire 1 b! inst28|inst3~q $end
$var wire 1 c! inst20|inst1~combout $end
$var wire 1 d! inst20|inst3~feeder_combout $end
$var wire 1 e! inst20|inst3~q $end
$var wire 1 f! inst44|inst1~combout $end
$var wire 1 g! inst44|inst3~q $end
$var wire 1 h! inst80|inst6~3_combout $end
$var wire 1 i! inst56|inst1~combout $end
$var wire 1 j! inst56|inst3~feeder_combout $end
$var wire 1 k! inst56|inst3~q $end
$var wire 1 l! inst32|inst1~combout $end
$var wire 1 m! inst32|inst3~q $end
$var wire 1 n! inst24|inst1~combout $end
$var wire 1 o! inst24|inst3~q $end
$var wire 1 p! inst80|inst6~4_combout $end
$var wire 1 q! inst60|inst1~combout $end
$var wire 1 r! inst60|inst3~q $end
$var wire 1 s! inst80|inst6~6_combout $end
$var wire 1 t! inst80|inst6~7_combout $end
$var wire 1 u! inst65|inst1~combout $end
$var wire 1 v! D0~input_o $end
$var wire 1 w! inst65|inst3~feeder_combout $end
$var wire 1 x! inst65|inst3~q $end
$var wire 1 y! inst73|inst1~combout $end
$var wire 1 z! inst73|inst3~feeder_combout $end
$var wire 1 {! inst73|inst3~q $end
$var wire 1 |! inst81|inst6~1_combout $end
$var wire 1 }! inst81|inst1~combout $end
$var wire 1 ~! inst81|inst3~q $end
$var wire 1 !" inst41|inst1~combout $end
$var wire 1 "" inst41|inst3~q $end
$var wire 1 #" inst49|inst1~combout $end
$var wire 1 $" inst49|inst3~q $end
$var wire 1 %" inst81|inst6~2_combout $end
$var wire 1 &" inst37|inst1~combout $end
$var wire 1 '" inst37|inst3~q $end
$var wire 1 (" inst53|inst1~combout $end
$var wire 1 )" inst53|inst3~q $end
$var wire 1 *" inst81|inst6~5_combout $end
$var wire 1 +" inst25|inst1~combout $end
$var wire 1 ," inst25|inst3~feeder_combout $end
$var wire 1 -" inst25|inst3~q $end
$var wire 1 ." inst33|inst1~combout $end
$var wire 1 /" inst33|inst3~q $end
$var wire 1 0" inst57|inst1~combout $end
$var wire 1 1" inst57|inst3~q $end
$var wire 1 2" inst81|inst6~4_combout $end
$var wire 1 3" inst61|inst1~combout $end
$var wire 1 4" inst61|inst3~q $end
$var wire 1 5" inst29|inst1~combout $end
$var wire 1 6" inst29|inst3~feeder_combout $end
$var wire 1 7" inst29|inst3~q $end
$var wire 1 8" inst45|inst1~combout $end
$var wire 1 9" inst45|inst3~q $end
$var wire 1 :" inst21|inst1~combout $end
$var wire 1 ;" inst21|inst3~q $end
$var wire 1 <" inst81|inst6~3_combout $end
$var wire 1 =" inst81|inst6~6_combout $end
$var wire 1 >" inst77|inst1~combout $end
$var wire 1 ?" inst77|inst3~q $end
$var wire 1 @" inst69|inst1~combout $end
$var wire 1 A" inst69|inst3~feeder_combout $end
$var wire 1 B" inst69|inst3~q $end
$var wire 1 C" inst81|inst6~7_combout $end
$upscope $end
$upscope $end
$enddefinitions $end
#0
$dumpvars
0!
0"
0#
0$
1%
0&
0'
0(
0)
1*
z+
z,
z-
z.
0/
10
x1
12
13
14
05
06
07
18
09
1:
0;
0<
0=
0>
0?
0@
0A
0B
0C
0D
0E
0F
0G
0H
0I
0J
0K
0L
0M
0N
0O
0P
0Q
0R
0S
0T
1U
0V
0W
0X
0Y
0Z
0[
0\
0]
0^
0_
0`
1a
0b
0c
0d
0e
0f
0g
0h
0i
0j
0k
0l
0m
1n
0o
0p
0q
0r
0s
0t
0u
0v
1w
1x
0y
0z
0{
0|
0}
0~
0!!
0"!
0#!
0$!
0%!
0&!
0'!
0(!
1)!
0*!
0+!
0,!
0-!
0.!
0/!
00!
01!
02!
03!
04!
05!
06!
07!
18!
09!
0:!
0;!
0<!
0=!
0>!
0?!
0@!
1A!
1B!
0C!
0D!
0E!
0F!
0G!
1H!
0I!
0J!
0K!
0L!
0M!
0N!
0O!
0P!
0Q!
0R!
0S!
0T!
0U!
0V!
0W!
0X!
0Y!
0Z!
0[!
0\!
0]!
0^!
0_!
1`!
0a!
0b!
0c!
0d!
0e!
0f!
0g!
1h!
0i!
0j!
0k!
0l!
0m!
0n!
0o!
1p!
0q!
0r!
1s!
1t!
0u!
0v!
0w!
0x!
0y!
0z!
0{!
0|!
0}!
0~!
0!"
0""
0#"
0$"
1%"
0&"
0'"
0("
0)"
0*"
0+"
0,"
0-"
0."
0/"
00"
01"
12"
03"
04"
05"
06"
07"
08"
09"
0:"
0;"
1<"
1="
0>"
0?"
0@"
0A"
0B"
1C"
$end
#3600
0%
0:
1:"
1c!
1"!
1M
#7200
1%
1:
0:"
0c!
0"!
0M
#10000
1!
1&
1;
1v!
1A"
16"
1,"
1z!
1w!
#10800
0%
0:
1+"
1n!
1?!
1k
1-"
#14400
1%
1:
0+"
0n!
0?!
0k
#18000
0%
0:
1+"
1n!
1?!
1k
#20000
1"
1'
0!
0&
17
1J!
0;
0v!
0A"
06"
0,"
0z!
0w!
15"
0+"
0n!
1a!
0?!
1&!
0k
1S
1j!
1d!
1Z!
1P!
1b!
#21600
1%
1:
05"
0a!
0&!
0S
#25200
0%
0:
15"
1a!
1&!
1S
#28800
1%
1:
05"
0a!
0&!
0S
#30000
1!
1&
1;
1v!
1A"
16"
1,"
1z!
1w!
#32400
0%
0:
1."
1l!
1;!
1f
1/"
1m!
#36000
1%
1:
0."
0l!
0;!
0f
#39600
0%
0:
1."
1l!
1;!
1f
#40000
1#
1(
0"
0'
0!
0&
16
1{
07
0J!
0;
0v!
0A"
06"
0,"
0z!
0w!
0."
1&"
0l!
1V!
0;!
1-!
1r
0f
0j!
0d!
0Z!
0P!
1F!
16!
11!
1+!
1'!
1.!
#43200
1%
1:
0&"
0V!
0-!
0r
#46800
0%
0:
1&"
1V!
1-!
1r
#50000
1!
1&
1;
1v!
1A"
16"
1,"
1z!
1w!
0&"
1!"
1Y!
0V!
15!
0-!
0r
1Z
1""
17!
#50400
1%
1:
0!"
0Y!
05!
0Z
#54000
0%
0:
1!"
1Y!
15!
1Z
#57600
1%
1:
0!"
0Y!
05!
0Z
#60000
1"
1'
0!
0&
17
1J!
0;
0v!
0A"
06"
0,"
0z!
0w!
1j!
1d!
1Z!
1P!
#61200
0%
0:
18"
1f!
1$!
1Q
1g!
1%!
#64800
1%
1:
08"
0f!
0$!
0Q
#68400
0%
0:
18"
1f!
1$!
1Q
#70000
1!
1&
1;
1v!
1A"
16"
1,"
1z!
1w!
08"
1#"
0f!
1^!
13!
0$!
1^
0Q
1$"
1_!
14!
#72000
1%
1:
0#"
0^!
03!
0^
#75600
0%
0:
1#"
1^!
13!
1^
#79200
1%
1:
0#"
0^!
03!
0^
#80000
1$
1)
0#
0(
0"
0'
0!
0&
19
1=
06
0{
07
0J!
0;
0v!
0A"
06"
0,"
0z!
0w!
0j!
0d!
0Z!
0P!
0F!
06!
01!
0+!
0'!
1l
1g
1[
1X
1N
1C
#82800
0%
0:
1("
1T!
1*!
1t
1u
#86400
1%
1:
0("
0T!
0*!
0t
#90000
1!
1&
0%
1;
1v!
0:
10"
1i!
1=!
1i
1A"
16"
1,"
1z!
1w!
11"
1j
#93600
1%
1:
00"
0i!
0=!
0i
#97200
0%
0:
10"
1i!
1=!
1i
#100000
1"
1'
0!
0&
17
1J!
0;
0v!
0A"
06"
0,"
0z!
0w!
13"
00"
1q!
0i!
0=!
19!
1o
0i
1j!
1d!
1Z!
1P!
1r!
1p
#100800
1%
1:
03"
0q!
09!
0o
#104400
0%
0:
13"
1q!
19!
1o
#108000
1%
1:
03"
0q!
09!
0o
#110000
1!
1&
1;
1v!
1A"
16"
1,"
1z!
1w!
#111600
0%
0:
1u!
1I!
1z
1B
1x!
1K!
1D
#115200
1%
1:
0u!
0I!
0z
0B
#118800
0%
0:
1u!
1I!
1z
1B
#120000
1#
1(
0"
0'
0!
0&
16
1{
07
0J!
0;
0v!
0A"
06"
0,"
0z!
0w!
1@"
0u!
1O!
0I!
1E!
0z
0B
1<
0j!
0d!
0Z!
0P!
1F!
16!
11!
1+!
1'!
1Q!
1>
#122400
1%
1:
0@"
0O!
0E!
0<
#126000
0%
0:
1@"
1O!
1E!
1<
0Q!
1G!
#129600
1%
1:
0@"
0O!
0E!
0<
#130000
1!
1&
1;
1v!
1A"
16"
1,"
1z!
1w!
#133200
0%
0:
1y!
1L!
1}
1E
1{!
1~
1F
#136800
1%
1:
0y!
0L!
0}
0E
#140000
1"
1'
0!
0&
17
1J!
0;
0v!
0A"
06"
0,"
0z!
0w!
1j!
1d!
1Z!
1P!
#140400
0%
0:
1>"
1R!
1C!
1I
1S!
1D!
1J
#144000
1%
1:
0>"
0R!
0C!
0I
#147600
0%
0:
1>"
1R!
1C!
1I
#150000
1!
1&
1;
1v!
1A"
16"
1,"
1z!
1w!
0>"
1}!
1\!
0R!
0C!
10!
1W
0I
1~!
1]!
12!
1Y
#151200
1%
1:
0}!
0\!
00!
0W
#154800
0%
0:
1}!
1\!
10!
1W
#158400
1%
1:
0}!
0\!
00!
0W
#160000
0*
0$
0)
0#
0(
0"
0'
0!
0&
0%
08
09
0=
06
0{
07
0J!
0;
0v!
0:
1q
1P
1y
0A"
06"
0,"
0z!
0w!
0j!
0d!
0Z!
0P!
0F!
06!
01!
0+!
0'!
0l
0g
0[
0X
0N
0C
1.
1-
1,
1+
0<"
0h!
0)!
0U
0w
0B!
0s!
0="
0C"
0t!
0H!
0x
0.
0-
0,
0+
#170000
1!
1&
1;
1v!
0q
1d
0P
1A"
16"
1,"
1z!
1w!
1<"
1h!
1)!
1U
0p!
0A!
0n
1="
1C"
1+
#180000
1"
1'
0!
0&
17
1J!
0;
0v!
0d
1K
0A"
06"
0,"
0z!
0w!
1j!
1d!
1Z!
1P!
0<"
0)!
0U
1p!
1A!
1n
1s!
0="
0C"
1t!
1,
0+
#190000
1!
1&
1;
1v!
1c
0K
1A"
16"
1,"
1z!
1w!
1<"
1)!
1U
0A!
0n
1="
1C"
1+
#200000
1#
1(
0"
0'
0!
0&
16
1{
07
0J!
0;
0v!
1q
0c
0A"
06"
0,"
0z!
0w!
0j!
0d!
0Z!
0P!
1F!
16!
11!
1+!
1'!
1A!
1n
1*"
1X!
1v
0s!
0="
1B!
1H!
0C"
0t!
0,
0+
1-
#210000
1!
1&
1;
1v!
0q
1`
1A"
16"
1,"
1z!
1w!
0`!
0a
0*"
0X!
0v
1="
1C"
1+
#220000
1"
1'
0!
0&
17
1J!
0;
0v!
0`
1L
0A"
06"
0,"
0z!
0w!
1j!
1d!
1Z!
1P!
0<"
0U
1`!
1a
1s!
0="
0C"
1t!
1,
0+
#230000
1!
1&
1;
1v!
1V
0L
1A"
16"
1,"
1z!
1w!
1<"
1U
0a
1="
1C"
1+
#240000
1$
1)
0#
0(
0"
0'
0!
0&
19
1=
06
0{
07
0J!
0;
0v!
1q
0V
0A"
06"
0,"
0z!
0w!
0j!
0d!
0Z!
0P!
0F!
06!
01!
0+!
0'!
1l
1g
1[
1X
1N
1C
1a
1*"
1X!
1/!
0B!
0s!
0="
1w
1x
0C"
0t!
0H!
0-
0,
0+
1.
#250000
1!
1&
1;
1v!
0q
1e
1A"
16"
1,"
1z!
1w!
0p!
0A!
0*"
0X!
0/!
1="
1C"
1+
#260000
1"
1'
0!
0&
17
1J!
0;
0v!
0e
1b
0A"
06"
0,"
0z!
0w!
1j!
1d!
1Z!
1P!
0="
1p!
1A!
1s!
0C"
0+
1t!
1,
#270000
1!
1&
1;
1v!
0b
1A
1A"
16"
1,"
1z!
1w!
1!!
1="
1B!
1C"
1+
#280000
1#
1(
0"
0'
0!
0&
16
1{
07
0J!
0;
0v!
1q
0A
1@
0A"
06"
0,"
0z!
0w!
0j!
0d!
0Z!
0P!
1F!
16!
11!
1+!
1'!
0!!
0C"
0t!
0,
0+
1H!
1-
#290000
1!
1&
1;
1v!
0q
1G
0@
1A"
16"
1,"
1z!
1w!
1N!
1C"
1t!
1,
1+
0t!
0,
#300000
1"
1'
0!
0&
17
1J!
0;
0v!
0G
1?
0A"
06"
0,"
0z!
0w!
1j!
1d!
1Z!
1P!
0N!
0C"
0+
1t!
1,
#310000
1!
1&
1;
1v!
1]
0?
1A"
16"
1,"
1z!
1w!
1C"
1+
#320000
0$
0)
0#
0(
0"
0'
0!
0&
09
0=
06
0{
07
0J!
0;
0v!
1q
0]
1P
0A"
06"
0,"
0z!
0w!
0j!
0d!
0Z!
0P!
0F!
06!
01!
0+!
0'!
0l
0g
0[
0X
0N
0C
0<"
0h!
0)!
0U
0w
0B!
0s!
0="
0C"
0t!
0H!
0x
0.
0-
0,
0+
#330000
1!
1&
1;
1v!
0q
1d
0P
1A"
16"
1,"
1z!
1w!
1<"
1h!
1)!
1U
0p!
0A!
0n
1="
1C"
1+
#340000
1"
1'
0!
0&
17
1J!
0;
0v!
0d
1K
0A"
06"
0,"
0z!
0w!
1j!
1d!
1Z!
1P!
0<"
0)!
0U
1p!
1A!
1n
1s!
0="
0C"
1t!
1,
0+
#350000
1!
1&
1;
1v!
1c
0K
1A"
16"
1,"
1z!
1w!
1<"
1)!
1U
0A!
0n
1="
1C"
1+
#360000
1#
1(
0"
0'
0!
0&
16
1{
07
0J!
0;
0v!
1q
0c
0A"
06"
0,"
0z!
0w!
0j!
0d!
0Z!
0P!
1F!
16!
11!
1+!
1'!
1A!
1n
1*"
1X!
1v
0s!
0="
1B!
1H!
0C"
0t!
0,
0+
1-
#370000
1!
1&
1;
1v!
0q
1`
1A"
16"
1,"
1z!
1w!
0`!
0a
0*"
0X!
0v
1="
1C"
1+
#380000
1"
1'
0!
0&
17
1J!
0;
0v!
0`
1L
0A"
06"
0,"
0z!
0w!
1j!
1d!
1Z!
1P!
0<"
0U
1`!
1a
1s!
0="
0C"
1t!
1,
0+
#390000
1!
1&
1;
1v!
1V
0L
1A"
16"
1,"
1z!
1w!
1<"
1U
0a
1="
1C"
1+
#400000
1$
1)
0#
0(
0"
0'
0!
0&
19
1=
06
0{
07
0J!
0;
0v!
1q
0V
0A"
06"
0,"
0z!
0w!
0j!
0d!
0Z!
0P!
0F!
06!
01!
0+!
0'!
1l
1g
1[
1X
1N
1C
1a
1*"
1X!
1/!
0B!
0s!
0="
1w
1x
0C"
0t!
0H!
0-
0,
0+
1.
#410000
1!
1&
1;
1v!
0q
1e
1A"
16"
1,"
1z!
1w!
0p!
0A!
0*"
0X!
0/!
1="
1C"
1+
#420000
1%
1"
1'
0!
0&
1:
17
1J!
0;
0v!
0e
0A"
06"
0,"
0z!
0w!
1j!
1d!
1Z!
1P!
0y
z.
z-
z,
z+
1p!
1A!
1B!
1s!
1t!
1H!
#421200
0%
0:
1b
1y
1.
1-
1,
1+
0="
0B!
0H!
0C"
0+
0-
#424800
1%
1:
0b
0y
z.
z-
z,
z+
1="
1B!
1H!
1C"
#428400
0%
0:
1b
1y
1.
1-
1,
1+
0="
0B!
0H!
0C"
0+
0-
#430000
1!
1&
1;
1v!
0b
1A
1A"
16"
1,"
1z!
1w!
1!!
1="
1B!
1C"
1+
#432000
1%
1:
0A
0y
z.
z-
z,
z+
0!!
1H!
#435600
0%
0:
1A
1y
1.
1-
1,
1+
1!!
0H!
0-
#439200
1%
1:
0A
0y
z.
z-
z,
z+
0!!
1H!
#440000
1#
1(
0"
0'
0!
0&
16
1{
07
0J!
0;
0v!
0A"
06"
0,"
0z!
0w!
0j!
0d!
0Z!
0P!
1F!
16!
11!
1+!
1'!
#442800
0%
0:
1q
1@
1y
1.
1-
1,
1+
0C"
0t!
0,
0+
#446400
1%
1:
0q
0@
0y
z.
z-
z,
z+
1C"
1t!
#450000
1!
1&
0%
1;
1v!
0:
1G
1y
1A"
16"
1,"
1z!
1w!
1.
1-
1,
1+
1N!
0t!
0,
#453600
1%
1:
0G
0y
z.
z-
z,
z+
0N!
1t!
#457200
0%
0:
1G
1y
1.
1-
1,
1+
1N!
0t!
0,
#460000
1"
1'
0!
0&
17
1J!
0;
0v!
0G
1?
0A"
06"
0,"
0z!
0w!
1j!
1d!
1Z!
1P!
0N!
0C"
0+
1t!
1,
#460800
1%
1:
0?
0y
z.
z-
z,
z+
1C"
#464400
0%
0:
1?
1y
1.
1-
1,
1+
0C"
0+
#468000
1%
1:
0?
0y
z.
z-
z,
z+
1C"
#470000
1!
1&
1;
1v!
1A"
16"
1,"
1z!
1w!
#471600
0%
0:
1]
1y
1.
1-
1,
1+
#475200
1%
1:
0]
0y
z.
z-
z,
z+
#478800
0%
0:
1]
1y
1.
1-
1,
1+
#480000
0$
0)
0#
0(
0"
0'
0!
0&
09
0=
06
0{
07
0J!
0;
0v!
1q
0]
1P
0A"
06"
0,"
0z!
0w!
0j!
0d!
0Z!
0P!
0F!
06!
01!
0+!
0'!
0l
0g
0[
0X
0N
0C
0<"
0h!
0)!
0U
0w
0B!
0s!
0="
0C"
0t!
0H!
0x
0.
0-
0,
0+
#482400
1%
1:
0q
0P
0y
z.
z-
z,
z+
1<"
1h!
1)!
1U
1w
1B!
1s!
1="
1C"
1t!
1H!
1x
#486000
0%
0:
1q
1P
1y
1.
1-
1,
1+
0<"
0h!
0)!
0U
0w
0B!
0s!
0="
0C"
0t!
0H!
0x
0.
0-
0,
0+
#489600
1%
1:
0q
0P
0y
z.
z-
z,
z+
1<"
1h!
1)!
1U
1w
1B!
1s!
1="
1C"
1t!
1H!
1x
#490000
1!
1&
1;
1v!
1A"
16"
1,"
1z!
1w!
#493200
0%
0:
1d
1y
1.
1-
1,
1+
0p!
0A!
0n
0w
0B!
0s!
0t!
0H!
0x
0.
0-
0,
#496800
1%
1:
0d
0y
z.
z-
z,
z+
1p!
1A!
1n
1w
1B!
1s!
1t!
1H!
1x
#500000
1"
1'
0!
0&
17
1J!
0;
0v!
0A"
06"
0,"
0z!
0w!
1j!
1d!
1Z!
1P!
#500400
0%
0:
1K
1y
1.
1-
1,
1+
0<"
0)!
0U
0w
0B!
0="
0C"
0H!
0x
0.
0-
0+
#504000
1%
1:
0K
0y
z.
z-
z,
z+
1<"
1)!
1U
1w
1B!
1="
1C"
1H!
1x
#507600
0%
0:
1K
1y
1.
1-
1,
1+
0<"
0)!
0U
0w
0B!
0="
0C"
0H!
0x
0.
0-
0+
#510000
1!
1&
1;
1v!
1c
0K
1A"
16"
1,"
1z!
1w!
1<"
1)!
1U
0A!
0n
1="
1C"
1+
#511200
1%
1:
0c
0y
z.
z-
z,
z+
1A!
1n
1w
1B!
1H!
1x
#514800
0%
0:
1c
1y
1.
1-
1,
1+
0A!
0n
0w
0B!
0H!
0x
0.
0-
#518400
1%
1:
0c
0y
z.
z-
z,
z+
1A!
1n
1w
1B!
1H!
1x
#520000
1#
1(
0"
0'
0!
0&
16
1{
07
0J!
0;
0v!
0A"
06"
0,"
0z!
0w!
0j!
0d!
0Z!
0P!
1F!
16!
11!
1+!
1'!
#522000
0%
0:
1q
1y
1.
1-
1,
1+
1*"
1X!
1v
0w
0s!
0="
0C"
0t!
0x
0.
0,
0+
#525600
1%
1:
0q
0y
z.
z-
z,
z+
0*"
0X!
0v
1w
1s!
1="
1C"
1t!
1x
#529200
0%
0:
1q
1y
1.
1-
1,
1+
1*"
1X!
1v
0w
0s!
0="
0C"
0t!
0x
0.
0,
0+
#530000
1!
1&
1;
1v!
0q
1`
1A"
16"
1,"
1z!
1w!
0`!
0a
0*"
0X!
0v
1="
1C"
1+
#532800
1%
1:
0`
0y
z.
z-
z,
z+
1`!
1a
1w
1s!
1t!
1x
#536400
0%
0:
1`
1y
1.
1-
1,
1+
0`!
0a
0w
0s!
0t!
0x
0.
0,
#540000
1"
1'
0!
0&
1%
17
1J!
0;
0v!
1:
0`
0y
0A"
06"
0,"
0z!
0w!
1j!
1d!
1Z!
1P!
z.
z-
z,
z+
1`!
1a
1w
1s!
1t!
1x
#543600
0%
0:
1L
1y
1.
1-
1,
1+
0<"
0U
0w
0="
0C"
0x
0.
0+
#547200
1%
1:
0L
0y
z.
z-
z,
z+
1<"
1U
1w
1="
1C"
1x
#550000
1!
1&
1;
1v!
1A"
16"
1,"
1z!
1w!
#550800
0%
0:
1V
1y
1.
1-
1,
1+
0a
0w
0x
0.
#554400
1%
1:
0V
0y
z.
z-
z,
z+
1a
1w
1x
#558000
0%
0:
1V
1y
1.
1-
1,
1+
0a
0w
0x
0.
#560000
1$
1)
0#
0(
0"
0'
0!
0&
19
1=
06
0{
07
0J!
0;
0v!
1q
0V
0A"
06"
0,"
0z!
0w!
0j!
0d!
0Z!
0P!
0F!
06!
01!
0+!
0'!
1l
1g
1[
1X
1N
1C
1a
1*"
1X!
1/!
0B!
0s!
0="
1w
1x
0C"
0t!
0H!
0-
0,
0+
1.
#561600
1%
1:
0q
0y
z.
z-
z,
z+
0*"
0X!
0/!
1B!
1s!
1="
1C"
1t!
1H!
#565200
0%
0:
1q
1y
1.
1-
1,
1+
1*"
1X!
1/!
0B!
0s!
0="
0C"
0t!
0H!
0-
0,
0+
#568800
1%
1:
0q
0y
z.
z-
z,
z+
0*"
0X!
0/!
1B!
1s!
1="
1C"
1t!
1H!
#570000
1!
1&
1;
1v!
1A"
16"
1,"
1z!
1w!
#572400
0%
0:
1e
1y
1.
1-
1,
1+
0p!
0A!
0B!
0s!
0t!
0H!
0-
0,
#576000
1%
1:
0e
0y
z.
z-
z,
z+
1p!
1A!
1B!
1s!
1t!
1H!
#579600
0%
0:
1e
1y
1.
1-
1,
1+
0p!
0A!
0B!
0s!
0t!
0H!
0-
0,
#580000
1"
1'
0!
0&
17
1J!
0;
0v!
0e
1b
0A"
06"
0,"
0z!
0w!
1j!
1d!
1Z!
1P!
0="
1p!
1A!
1s!
0C"
0+
1t!
1,
#583200
1%
1:
0b
0y
z.
z-
z,
z+
1="
1B!
1H!
1C"
#586800
0%
0:
1b
1y
1.
1-
1,
1+
0="
0B!
0H!
0C"
0+
0-
#590000
1!
1&
1;
1v!
0b
1A
1A"
16"
1,"
1z!
1w!
1!!
1="
1B!
1C"
1+
#590400
1%
1:
0A
0y
z.
z-
z,
z+
0!!
1H!
#594000
0%
0:
1A
1y
1.
1-
1,
1+
1!!
0H!
0-
#597600
1%
1:
0A
0y
z.
z-
z,
z+
0!!
1H!
#600000
1#
1(
0"
0'
0!
0&
16
1{
07
0J!
0;
0v!
0A"
06"
0,"
0z!
0w!
0j!
0d!
0Z!
0P!
1F!
16!
11!
1+!
1'!
#601200
0%
0:
1q
1@
1y
1.
1-
1,
1+
0C"
0t!
0,
0+
#604800
1%
1:
0q
0@
0y
z.
z-
z,
z+
1C"
1t!
#608400
0%
0:
1q
1@
1y
1.
1-
1,
1+
0C"
0t!
0,
0+
#610000
1!
1&
1;
1v!
0q
1G
0@
1A"
16"
1,"
1z!
1w!
1N!
1C"
1t!
1,
1+
0t!
0,
#612000
1%
1:
0G
0y
z.
z-
z,
z+
0N!
1t!
